municipio;partido;votos;porcentaje;escaños
Albacete;"PARTIDO POPULAR";78094;36.61;3
Albacete;"PARTIDO SOCIALISTA OBRERO ESPAÑOL";72031;33.77;2
Albacete;PODEMOS;24036;11.27;1
Albacete;"UNION DE CIUDADANOS INDEPENDIENTES";1072;0.50;0
Albacete;"GANEMOS CASTILLA-LA MANCHA-LOS VERDES-IZQUIERDA UNIDA";8228;3.86;0
Albacete;"CIUDADANOS-PARTIDO DE LA CIUDADANIA";20619;9.67;0
Albacete;"PARTIDO COMUNISTA DE LOS PUEBLOS DE ESPAÑA";509;0.24;0
Albacete;VOX;796;0.37;0
Albacete;"PARTIDO ANIMALISTA CONTRA EL MALTRATO ANIMAL";1951;0.91;0
Albacete;"UNIÓN PROGRESO Y DEMOCRACIA";1998;0.94;0
Albacete;"PARTIDO CASTELLANO-UNIDAD CASTELLANA";253;0.12;0
"Alicante / Alacant";"PARTIDO POPULAR";223950;27.33;11
"Alicante / Alacant";"PARTIDO SOCIALISTA OBRERO ESPAÑOL";182984;22.33;9
"Alicante / Alacant";"CIUDADANOS-PARTIDO DE LA CIUDADANIA";114306;13.95;5
"Alicante / Alacant";PODEMOS;98131;11.98;5
"Alicante / Alacant";"COALICIÓ COMPROMÍS: BLOC - INICIATIVA - VERDS";100878;12.31;5
"Alicante / Alacant";"ESPAÑA 2000";1003;0.12;0
"Alicante / Alacant";"FORO DEMÓCRATA";775;0.09;0
"Alicante / Alacant";"GUANYEM PAÍS VALENCIÀ";8079;0.99;0
"Alicante / Alacant";"ESQUERRA UNIDA PAÍS VALENCIÀ-LOS VERDES-ESQUERRA REPUBLICANA PAÍS VALENCIÀ-ALTERNATIVA SOCIALISTA: ACORD CIUTADÀ";35142;4.29;0
"Alicante / Alacant";"LA COALICIÓN NACIONAL";404;0.05;0
"Alicante / Alacant";"PARTIDO COMUNISTA DE LOS PUEBLOS DE ESPAÑA";1434;0.18;0
"Alicante / Alacant";"RECORTES CERO";1272;0.16;0
"Alicante / Alacant";VOX;2947;0.36;0
"Alicante / Alacant";"PARTIDO ANIMALISTA CONTRA EL MALTRATO ANIMAL";7301;0.89;0
"Alicante / Alacant";"FALANGE ESPAÑOLA DE LAS J.O.N.S.";1611;0.20;0
"Alicante / Alacant";"COALICIÓ JUNTS";552;0.07;0
"Alicante / Alacant";"PARTIDO LIBERTARIO";593;0.07;0
"Alicante / Alacant";"UNIÓN PROGRESO Y DEMOCRACIA";11914;1.45;0
"Alicante / Alacant";"ESPERANZA CIUDADANA";1120;0.14;0
Aragón;"PARTIDO POPULAR";181757;27.50;21
Aragón;"PARTIDO SOCIALISTA OBRERO ESPAÑOL";141528;21.41;18
Aragón;PODEMOS;135554;20.51;14
Aragón;"PARTIDO ARAGONES";45577;6.90;6
Aragón;"CIUDADANOS-PARTIDO DE LA CIUDADANIA";62188;9.41;5
Aragón;"CHUNTA ARAGONESISTA";30334;4.59;2
Aragón;"IZQUIERDA UNIDA DE ARAGON";27936;4.23;1
Aragón;"COMPROMISO CON ARAGON";2839;0.43;0
Aragón;"ESCAÑOS EN BLANCO";5254;0.79;0
Aragón;"AGRUPACION DE ELECTORES RECORTES CERO";1061;0.16;0
Aragón;"PARTIDO ANIMALISTA CONTRA EL MALTRATO ANIMAL";4895;0.74;0
Aragón;"UNIÓN PROGRESO Y DEMOCRACIA";5637;0.85;0
Aragón;"FEDERACION DE LOS INDEPENDIENTES DE ARAGON";788;0.12;0
Aragón;"BLOQUE ARAGONES";672;0.10;0
Aragón;"PARTIDO COMUNISTA DE LOS PUEBLOS DE ESPAÑA";617;0.09;0
Aragón;EQUO;1231;0.19;0
Badajoz;"PARTIDO SOCIALISTA OBRERO ESPAÑOL-SIEX";170715;43.69;18
Badajoz;"PARTIDO POPULAR";141825;36.29;15
Badajoz;PODEMOS;28311;7.25;3
Badajoz;"EXTREMEÑOS ""estremeñus""";3724;0.95;0
Badajoz;"ADELANTE EXTREMADURA";790;0.20;0
Badajoz;"CIUDADANOS-PARTIDO DE LA CIUDADANIA";15293;3.91;0
Badajoz;"EXTREMADURA UNIDA";1156;0.30;0
Badajoz;VOX;1123;0.29;0
Badajoz;"UNIÓN PROGRESO Y DEMOCRACIA";2430;0.62;0
Badajoz;"GANEMOS EXTREMADURA-IZQUIERDA UNIDA-LOS VERDES";18616;4.76;0
Badajoz;"BADAJOZ ADELANTE";1345;0.34;0
Burgos;"PARTIDO POPULAR";66897;36.57;5
Burgos;"PARTIDO SOCIALISTA OBRERO ESPAÑOL";45299;24.76;3
Burgos;PODEMOS;25779;14.09;2
Burgos;"CIUDADANOS-PARTIDO DE LA CIUDADANIA";22078;12.07;1
Burgos;"SOLIDARIDAD Y AUTOGESTION INTERNACIONALISTA";553;0.30;0
Burgos;"PARTIDO COMUNISTA DE LOS PUEBLOS DE ESPAÑA";492;0.27;0
Burgos;VOX;2013;1.10;0
Burgos;"GANEMOS AL FRACKING CASTILLA Y LEÓN";2382;1.30;0
Burgos;"PARTIDO CASTELLANO-TIERRA COMUNERA";1610;0.88;0
Burgos;"UNIÓN PROGRESO Y DEMOCRACIA";3353;1.83;0
Burgos;"IZQUIERDA UNIDA-EQUO CONVERGENCIA POR CASTILLA Y LEON";7051;3.85;0
Burgos;"PARTIDO POR LA LIBERTAD - CON LAS MANOS LIMPIAS";911;0.50;0
Cáceres;"PARTIDO POPULAR";93977;38.17;13
Cáceres;"PARTIDO SOCIALISTA OBRERO ESPAÑOL-SIEX";93649;38.04;12
Cáceres;PODEMOS;22562;9.16;3
Cáceres;"CIUDADANOS-PARTIDO DE LA CIUDADANIA";12540;5.09;1
Cáceres;"ADELANTE EXTREMADURA";736;0.30;0
Cáceres;"EXTREMADURA UNIDA";2059;0.84;0
Cáceres;VOX;650;0.26;0
Cáceres;"PARTIDO ANIMALISTA CONTRA EL MALTRATO ANIMAL";1492;0.61;0
Cáceres;"UNIÓN PROGRESO Y DEMOCRACIA";1489;0.60;0
Cáceres;"GANEMOS EXTREMADURA-IZQUIERDA UNIDA-LOS VERDES";8388;3.41;0
Cáceres;"EXTREMEÑOS ""estremeñus""";5553;2.26;0
Canarias;"COALICIÓN CANARIA-PARTIDO NACIONALISTA CANARIO";164407;18.17;18
Canarias;"PARTIDO SOCIALISTA OBRERO ESPAÑOL";179651;19.86;15
Canarias;"PARTIDO POPULAR";168232;18.59;12
Canarias;PODEMOS;131672;14.55;7
Canarias;"NUEVA CANARIAS";92655;10.24;5
Canarias;"AGRUPACION SOCIALISTA GOMERA";5089;0.56;3
Canarias;"AGRUPACIÓN DE ELECTORES RECORTES CERO";1473;0.16;0
Canarias;UNIDOS;32377;3.58;0
Canarias;VOX;1846;0.20;0
Canarias;"PARTIDO COMUNISTA DEL PUEBLO CANARIO";1842;0.20;0
Canarias;"ASAMBLEAS MUNICIPALES DE FUERTEVENTURA";1369;0.15;0
Canarias;"CIUDADANOS-PARTIDO DE LA CIUDADANIA";53766;5.94;0
Canarias;"MAS POR TELDE";3428;0.38;0
Canarias;"ESCAÑOS EN BLANCO";1342;0.15;0
Canarias;"ALTERNATIVA NACIONALISTA CANARIA";5530;0.61;0
Canarias;"PARTIDO ANIMALISTA CONTRA EL MALTRATO ANIMAL";11227;1.24;0
Canarias;"UNIÓN PROGRESO Y DEMOCRACIA";8155;0.90;0
Canarias;"CANARIAS DECIDE: IZQUIERDA UNIDA CANARIA-LOS VERDES-UNIDAD DEL PUEBLO-ALTERNATIVA REPUBLICANA";19946;2.20;0
Canarias;"SOLIDARIDAD Y AUTOGESTION INTERNACIONALISTA";418;0.05;0
Canarias;"POR UN MUNDO MAS JUSTO";1816;0.20;0
Canarias;"MOVIMIENTO POR LA UNIDAD DEL PUEBLO CANARIO";1899;0.21;0
Cantabria;"PARTIDO POPULAR";104438;32.61;13
Cantabria;"PARTIDO REGIONALISTA DE CANTABRIA";96070;30.00;12
Cantabria;"PARTIDO SOCIALISTA OBRERO ESPAÑOL";44855;14.01;5
Cantabria;PODEMOS;28272;8.83;3
Cantabria;"CIUDADANOS-PARTIDO DE LA CIUDADANIA";22165;6.92;2
Cantabria;"POR CANTABRIA SÍ";1834;0.57;0
Cantabria;VOX;1092;0.34;0
Cantabria;"GANEMOS CANTABRIA";1380;0.43;0
Cantabria;"IZQUIERDA UNIDA";8066;2.52;0
Cantabria;"PARTIDO ANIMALISTA CONTRA EL MALTRATO ANIMAL";1928;0.60;0
Cantabria;"UNIÓN PROGRESO Y DEMOCRACIA";2320;0.72;0
Cantabria;"SOLIDARIDAD Y AUTOGESTION INTERNACIONALISTA";246;0.08;0
Cantabria;"PARTIDO COMUNISTA DE LOS PUEBLOS DE ESPAÑA";555;0.17;0
Cantabria;EQUO;1563;0.49;0
Cantabria;"ALTERNATIVA MOTOR Y DEPORTES";487;0.15;0
"Castellón / Castelló";"PARTIDO POPULAR";86010;29.10;8
"Castellón / Castelló";"PARTIDO SOCIALISTA OBRERO ESPAÑOL";69766;23.60;6
"Castellón / Castelló";"COALICIÓ COMPROMÍS: BLOC - INICIATIVA - VERDS";41561;14.06;4
"Castellón / Castelló";PODEMOS/PODEM;33546;11.35;3
"Castellón / Castelló";"CIUDADANOS-PARTIDO DE LA CIUDADANIA";32175;10.88;3
"Castellón / Castelló";"FORO DEMÓCRATA";88;0.03;0
"Castellón / Castelló";"CIUDADANOS DE CENTRO DEMOCRATICO";2509;0.85;0
"Castellón / Castelló";"ELS VERDS - L&#39;ALTERNATIVA ECOLOGISTA";1142;0.39;0
"Castellón / Castelló";VOX;1011;0.34;0
"Castellón / Castelló";"LA COALICIÓN NACIONAL";288;0.10;0
"Castellón / Castelló";"SOM VALENCIANS";445;0.15;0
"Castellón / Castelló";"PARTIDO ANIMALISTA CONTRA EL MALTRATO ANIMAL";1653;0.56;0
"Castellón / Castelló";"UNIÓN PROGRESO Y DEMOCRACIA";2270;0.77;0
"Castellón / Castelló";GANEMOS;2149;0.73;0
"Castellón / Castelló";"ESQUERRA UNIDA PAÍS VALENCIÀ - ELS VERDS - ESQUERRA REPUBLICANA PAÍS VALENCIÀ - ALTERNATIVA SOCIALISTA: ACORD CIUTADÀ";9202;3.11;0
"Castellón / Castelló";"RECORTES CERO CASTELLÓN";218;0.07;0
"Castellón / Castelló";"FALANGE ESPAÑOLA DE LAS J.O.N.S.";425;0.14;0
"Castellón / Castelló";"PARTIT COMUNISTA DELS POBLES D&#39;ESPANYA";376;0.13;0
"Castellón / Castelló";"LOS VERDES ECOPACIFISTAS - JUNTS";272;0.09;0
"Castellón / Castelló";"ESPAÑA 2000";1555;0.53;0
"Castilla - La Mancha";"PARTIDO POPULAR";410886;37.51;16
"Castilla - La Mancha";"PARTIDO SOCIALISTA OBRERO ESPAÑOL";395544;36.11;14
"Castilla - La Mancha";PODEMOS;106565;9.73;3
"Castilla - La Mancha";VOX;5277;0.48;0
"Castilla - La Mancha";"CIUDADANOS-PARTIDO DE LA CIUDADANIA";94626;8.64;0
"Castilla - La Mancha";"PARTIDO ANIMALISTA CONTRA EL MALTRATO ANIMAL";8906;0.81;0
"Castilla - La Mancha";"UNIÓN PROGRESO Y DEMOCRACIA";10683;0.98;0
"Castilla - La Mancha";"LOS VERDES-GRUPO VERDE";1901;0.17;0
"Castilla - La Mancha";"PARTIDO COMUNISTA DE LOS PUEBLOS DE ESPAÑA";982;0.09;0
"Castilla - La Mancha";"PARTIDO CASTELLANO-UNIDAD CASTELLANA";1524;0.14;0
"Castilla - La Mancha";"UNION DE CIUDADANOS INDEPENDIENTES";5077;0.46;0
"Castilla - La Mancha";"LIBERALES E INDEPENDIENTES POR MANZANARES";286;0.03;0
"Castilla - La Mancha";"GANEMOS CASTILLA-LA MANCHA-LOS VERDES-IZQUIERDA UNIDA";34085;3.11;0
"Castilla y León";"PARTIDO POPULAR";510951;37.77;42
"Castilla y León";"PARTIDO SOCIALISTA OBRERO ESPAÑOL";351057;25.95;25
"Castilla y León";PODEMOS;163637;12.10;10
"Castilla y León";"CIUDADANOS-PARTIDO DE LA CIUDADANIA";138926;10.27;5
"Castilla y León";"UNION DEL PUEBLO LEONES";19067;1.41;1
"Castilla y León";"IZQUIERDA UNIDA-EQUO: CONVERGENCIA POR CASTILLA Y LEÓN";56133;4.15;1
"Castilla y León";CIVES;627;0.05;0
"Castilla y León";"PARTIDO CASTELLANO-TIERRA COMUNERA";4447;0.33;0
"Castilla y León";"PARTIDO SEGOVIANO DEMOCRÁTICO ESPAÑOL";866;0.06;0
"Castilla y León";"CIUDADANOS RURALES AGRUPADOS";1673;0.12;0
"Castilla y León";"AHORA DECIDE-ALTERNATIVA SOCIALISTA";2279;0.17;0
"Castilla y León";"FALANGE ESPAÑOLA DE LAS J.O.N.S.";1782;0.13;0
"Castilla y León";"PARTIDO COMUNISTA DE LOS PUEBLOS DE ESPAÑA";1383;0.10;0
"Castilla y León";"ESCAÑOS EN BLANCO";348;0.03;0
"Castilla y León";"GANEMOS AL FRACKING CASTILLA Y LEÓN";2382;0.18;0
"Castilla y León";"PARTIDO ANIMALISTA CONTRA EL MALTRATO ANIMAL";7145;0.53;0
"Castilla y León";"UNIÓN PROGRESO Y DEMOCRACIA";19367;1.43;0
"Castilla y León";"PARTIDO REGIONALISTA DEL PAIS LEONES";1325;0.10;0
"Castilla y León";"COALICION POR EL BIERZO";5026;0.37;0
"Castilla y León";"CANDIDATURA INDEPENDIENTE-CIUDADANOS DE CENTRO DEMOCRÁTICO";12735;0.94;0
"Castilla y León";"CIUDADANOS LIBRES UNIDOS";733;0.05;0
"Castilla y León";"SOLIDARIDAD Y AUTOGESTION INTERNACIONALISTA";944;0.07;0
"Castilla y León";"PARTIDO AUTONOMISTA LEONES-UNIDAD LEONESISTA";1964;0.15;0
"Castilla y León";"PARTIDO REGIONALISTA DE EL BIERZO";722;0.05;0
"Castilla y León";"DEMOCRACIA REGIONALISTA DE CASTILLA Y LEON";837;0.06;0
"Castilla y León";"AGRUPACION DE ELECTORES INDEPENDIENTES ZAMORANOS";2374;0.18;0
"Castilla y León";"PARTIDO POR LA LIBERTAD - CON LAS MANOS LIMPIAS";911;0.07;0
"Castilla y León";VOX;9219;0.68;0
"Castilla y León";"DEMOCRACIA NACIONAL";888;0.07;0
Centro;"Partido Socialista Obrero Español";106971;24.56;9
Centro;"Partido Popular";88748;20.38;7
Centro;Podemos;88189;20.25;7
Centro;"Izquierda Unida de Asturias-Izquierda Xunida d&#39;Asturies";56982;13.08;5
Centro;"Foro de Ciudadanos";34137;7.84;3
Centro;"Ciudadanos-Partido de la Ciudadanía";34534;7.93;3
Centro;"Unión Progreso y Democracia";3901;0.90;0
Centro;Equo;1722;0.40;0
Centro;"Agrupación de Electores Recortes Cero";352;0.08;0
Centro;"Andecha Astur";860;0.20;0
Centro;"Escaños en Blanco";3055;0.70;0
Centro;"Partido Comunista de los Pueblos de España";882;0.20;0
Centro;"Movimiento de Renovación Democrática Ciudadana, Movimiento Red";417;0.10;0
Centro;"Movimiento Social Republicano";257;0.06;0
Centro;Vox;3176;0.73;0
Centro;"Partido Animalista contra el Maltrato Animal";3509;0.81;0
"Ciudad Real";"PARTIDO SOCIALISTA OBRERO ESPAÑOL";107373;38.87;4
"Ciudad Real";"PARTIDO POPULAR";102569;37.13;4
"Ciudad Real";"GANEMOS CASTILLA LA MANCHA-LOS VERDES-IZQUIERDA UNIDA";8424;3.05;0
"Ciudad Real";VOX;972;0.35;0
"Ciudad Real";"PARTIDO ANIMALISTA CONTRA EL MALTRATO ANIMAL";1898;0.69;0
"Ciudad Real";"UNIÓN PROGRESO Y DEMOCRACIA";3137;1.14;0
"Ciudad Real";PODEMOS;23197;8.40;0
"Ciudad Real";"PARTIDO CASTELLANO-UNIDAD CASTELLANA";289;0.10;0
"Ciudad Real";"CIUDADANOS-PARTIDO DE LA CIUDADANIA";20584;7.45;0
"Ciudad Real";"LIBERALES E INDEPENDIENTES POR MANZANARES";286;0.10;0
"Ciudad Real";"UNION DE CIUDADANOS INDEPENDIENTES";2036;0.74;0
"Comunidad de Madrid";"PARTIDO POPULAR";1047056;33.10;48
"Comunidad de Madrid";"PARTIDO SOCIALISTA OBRERO ESPAÑOL";804692;25.44;37
"Comunidad de Madrid";PODEMOS;587949;18.59;27
"Comunidad de Madrid";"CIUDADANOS-PARTIDO DE LA CIUDADANÍA";383874;12.14;17
"Comunidad de Madrid";"PARTIDO CASTELLANO-TIERRA COMUNERA";2118;0.07;0
"Comunidad de Madrid";"AGRUPACIÓN DE ELECTORES RECORTES CERO";4406;0.14;0
"Comunidad de Madrid";"ALTERNATIVA ESPAÑOLA";2860;0.09;0
"Comunidad de Madrid";"ESPAÑA 2000";6270;0.20;0
"Comunidad de Madrid";"FALANGE ESPAÑOLA DE LAS J.O.N.S.";5589;0.18;0
"Comunidad de Madrid";"PARTIDO ANIMALISTA CONTRA EL MALTRATO ANIMAL";32046;1.01;0
"Comunidad de Madrid";"UNIÓN PROGRESO Y DEMOCRACIA";64468;2.04;0
"Comunidad de Madrid";"UNION POR LEGANÉS";5543;0.18;0
"Comunidad de Madrid";"IZQUIERDA UNIDA COMUNIDAD DE MADRID - LOS VERDES";130890;4.14;0
"Comunidad de Madrid";"SOLIDARIDAD Y AUTOGESTIÓN INTERNACIONALISTA";1555;0.05;0
"Comunidad de Madrid";"LA COALICIÓN NACIONAL";3217;0.10;0
"Comunidad de Madrid";"PARTIDO LIBERTARIO";1923;0.06;0
"Comunidad de Madrid";"PARTIDO COMUNISTA DE LOS PUEBLOS DE ESPAÑA";3180;0.10;0
"Comunidad de Madrid";"PARTIDO HUMANISTA";3438;0.11;0
"Comunidad de Madrid";VOX;37043;1.17;0
"Comunidad Foral de Navarra";"UNIÓN DEL PUEBLO NAVARRO";91329;27.30;15
"Comunidad Foral de Navarra";"GEROA BAI";53034;15.86;9
"Comunidad Foral de Navarra";"EH BILDU";47843;14.30;8
"Comunidad Foral de Navarra";"PARTIDO SOCIALISTA DE NAVARRA";44916;13.43;7
"Comunidad Foral de Navarra";"PODEMOS-AHAL DUGU";45848;13.71;7
"Comunidad Foral de Navarra";"PARTIDO POPULAR";13080;3.91;2
"Comunidad Foral de Navarra";"COALICION IZQUIERDA-EZKERRA";12395;3.71;2
"Comunidad Foral de Navarra";"REPRESENTACIÓN CANNABICA NAVARRA NAFARROAKO ORDEZKARITZA KANABIKOA";1723;0.52;0
"Comunidad Foral de Navarra";"UNIÓN PROGRESO Y DEMOCRACIA";1708;0.51;0
"Comunidad Foral de Navarra";"PARTIDO ANIMALISTA CONTRA EL MALTRATO ANIMAL";2268;0.68;0
"Comunidad Foral de Navarra";"CIUDADANOS PARTIDO DE LA CIUDADANIA";9826;2.94;0
"Comunidad Foral de Navarra";"SOLIDARIDAD Y AUTOGESTION INTERNACIONALISTA";871;0.26;0
"Comunidad Foral de Navarra";"EQUO-PARTIDO VERDE EUROPEO EUROPAKO ALDERDI BERDEA";2132;0.64;0
"Comunidad Foral de Navarra";"LIBERTAD NAVARRA-LIBERTATE NAFARRA";945;0.28;0
"Comunitat Valenciana";"PARTIDO POPULAR";653186;26.25;31
"Comunitat Valenciana";"PARTIDO SOCIALISTA OBRERO ESPAÑOL";505186;20.30;23
"Comunitat Valenciana";"COALICIÓ COMPROMÍS: BLOC - INICIATIVA - VERDS";452654;18.19;19
"Comunitat Valenciana";"CIUDADANOS-PARTIDO DE LA CIUDADANIA";306396;12.31;13
"Comunitat Valenciana";PODEMOS;279596;11.23;13
"Comunitat Valenciana";"PARTIDO ANIMALISTA CONTRA EL MALTRATO ANIMAL";19559;0.79;0
"Comunitat Valenciana";AVANT;1307;0.05;0
"Comunitat Valenciana";"UNIÓN PROGRESO Y DEMOCRACIA";28470;1.14;0
"Comunitat Valenciana";"FALANGE ESPAÑOLA DE LAS J.O.N.S.";3547;0.14;0
"Comunitat Valenciana";"CIUDADANOS DE CENTRO DEMOCRATICO";2509;0.10;0
"Comunitat Valenciana";"ELS VERDS - L&#39;ALTERNATIVA ECOLOGISTA";1142;0.05;0
"Comunitat Valenciana";"ESCAÑOS EN BLANCO";1783;0.07;0
"Comunitat Valenciana";"LA COALICIÓN NACIONAL";1097;0.04;0
"Comunitat Valenciana";"SOM VALENCIANS";6745;0.27;0
"Comunitat Valenciana";"ESQUERRA UNIDA PAÍS VALENCIÀ - ELS VERDS - ESQUERRA REPUBLICANA PAÍS VALENCIÀ - ALTERNATIVA SOCIALISTA: ACORD CIUTADÀ";106047;4.26;0
"Comunitat Valenciana";"MOVIMIENTO SOCIAL REPUBLICANO";594;0.02;0
"Comunitat Valenciana";"PARTIDO LIBERTARIO";1203;0.05;0
"Comunitat Valenciana";"POBLE DEMOCRÀTIC PODEM";2190;0.09;0
"Comunitat Valenciana";"RECORTES CERO";2875;0.12;0
"Comunitat Valenciana";"COALICIÓ JUNTS";1460;0.06;0
"Comunitat Valenciana";"PARTIT COMUNISTA DELS POBLES D&#39;ESPANYA";2945;0.12;0
"Comunitat Valenciana";VOX;10184;0.41;0
"Comunitat Valenciana";"ESPERANZA CIUDADANA";1120;0.05;0
"Comunitat Valenciana";"UNITS X VALENCIA";1427;0.06;0
"Comunitat Valenciana";"ESPAÑA 2000";7456;0.30;0
"Comunitat Valenciana";"FORO DEMÓCRATA";1279;0.05;0
"Comunitat Valenciana";"GUANYEM PAÍS VALENCIÀ";18218;0.73;0
Cuarta;"PARTIDO POPULAR";17508;34.47;2
Cuarta;"PARTIDO SOCIALISTA OBRERO ESPAÑOL";19741;38.86;2
Cuarta;PODEMOS;4204;8.28;0
Cuarta;"CIUDADANOS-PARTIDO DE LA CIUDADANÍA";4783;9.42;0
Cuarta;"MOVIMIENTO DE RENOVACIÓN DEMOCRÁTICA CIUDADANA, MOVIMIENTO RED";24;0.05;0
Cuarta;"FORO CENTRO Y DEMOCRACIA";36;0.07;0
Cuarta;"GANAR LA REGIÓN DE MURCIA.IP (Izquierda Unida-Verdes Región de Murcia y Construyendo la Izquierda-Alternativa Socialista)";2697;5.31;0
Cuarta;"UNIÓN PROGRESO Y DEMOCRACIA";243;0.48;0
Cuarta;"AGRUPACIÓN ELECTORAL RECORTES CERO";57;0.11;0
Cuarta;VOX;131;0.26;0
Cuarta;"PARTIDO ANIMALISTA CONTRA EL MALTRATO ANIMAL";295;0.58;0
Cuarta;"CIUDADANOS DE CENTRO DEMOCRÁTICO";243;0.48;0
Cuarta;"ESCAÑOS EN BLANCO";74;0.15;0
Cuenca;"PARTIDO POPULAR";49233;41.63;3
Cuenca;"PARTIDO SOCIALISTA OBRERO ESPAÑOL";44576;37.69;2
Cuenca;"GANEMOS CASTILLA LA MANCHA-LOS VERDES-IZQUIERDA UNIDA";2500;2.11;0
Cuenca;VOX;433;0.37;0
Cuenca;"PARTIDO ANIMALISTA CONTRA EL MALTRATO ANIMAL";545;0.46;0
Cuenca;"UNIÓN PROGRESO Y DEMOCRACIA";621;0.53;0
Cuenca;PODEMOS;9344;7.90;0
Cuenca;"LOS VERDES-GRUPO VERDE";429;0.36;0
Cuenca;"PARTIDO CASTELLANO-UNIDAD CASTELLANA";268;0.23;0
Cuenca;"CIUDADANOS-PARTIDO DE LA CIUDADANIA";7774;6.57;0
Cuenca;"UNION DE CIUDADANOS INDEPENDIENTES";288;0.24;0
Eivissa;"PARTIDO POPULAR";14092;33.01;5
Eivissa;"PARTIDO SOCIALISTA OBRERO ESPAÑOL";10049;23.54;4
Eivissa;PODEMOS;7397;17.33;3
Eivissa;"ALTERNATIVA INSULAR";792;1.86;0
Eivissa;"GUANYEM LES ILLES BALEARS";1367;3.20;0
Eivissa;"PARTIDO RENOVADOR DE EIVISSA Y FORMENTERA";374;0.88;0
Eivissa;"EL PI - PROPOSTA PER LES ILLES";2452;5.74;0
Eivissa;"MAS EIVISSA -CORSARIS DEMOCRATIS";1024;2.40;0
Eivissa;"UNIÓN PROGRESO Y DEMOCRACIA";716;1.68;0
Eivissa;"ESQUERRA REPUBLICANA-EIVISSA SÍ";758;1.78;0
Eivissa;"GENT PER EIVISSA";1645;3.85;0
Eivissa;"MOVIMIENTO CIUDADANO EPIC IBIZA";977;2.29;0
"El Hierro";"COALICIÓN CANARIA-AGRUPACIÓN HERREÑA INDEPENDIENTE";2503;41.64;2
"El Hierro";"PARTIDO SOCIALISTA OBRERO ESPAÑOL";1333;22.18;1
"El Hierro";"NUEVA CANARIAS";392;6.52;0
"El Hierro";"CIUDADANOS-PARTIDO DE LA CIUDADANIA";85;1.41;0
"El Hierro";"PARTIDO ANIMALISTA CONTRA EL MALTRATO ANIMAL";43;0.72;0
"El Hierro";PODEMOS;403;6.70;0
"El Hierro";"PARTIDO POPULAR";1033;17.19;0
"El Hierro";"INICIATIVA POR EL HIERRO-IZQUIERDA UNIDA CANARIA-LOS VERDES-ALTERNATIVA REPUBLICANA:CANARIAS DECIDE";128;2.13;0
"El Hierro";"MOVIMIENTO POR LA UNIDAD DEL PUEBLO CANARIO";6;0.10;0
España;"PARTIDO BASE ESPAÑA";0;0.00;0
Extremadura;"PARTIDO SOCIALISTA OBRERO ESPAÑOL-SIEX";264364;41.50;30
Extremadura;"PARTIDO POPULAR";235802;37.02;28
Extremadura;PODEMOS;50873;7.99;6
Extremadura;"CIUDADANOS-PARTIDO DE LA CIUDADANIA";27833;4.37;1
Extremadura;"EXTREMADURA UNIDA";3215;0.50;0
Extremadura;"PARTIDO ANIMALISTA CONTRA EL MALTRATO ANIMAL";1492;0.23;0
Extremadura;"UNIÓN PROGRESO Y DEMOCRACIA";3919;0.62;0
Extremadura;"GANEMOS EXTREMADURA-IZQUIERDA UNIDA-LOS VERDES";27004;4.24;0
Extremadura;"EXTREMEÑOS ""estremeñus""";9277;1.46;0
Extremadura;VOX;1773;0.28;0
Extremadura;"BADAJOZ ADELANTE";1345;0.21;0
Extremadura;"ADELANTE EXTREMADURA";1526;0.24;0
Formentera;"GENT X FORMENTERA + PARTIT SOCIALISTA ILLES BALEARS";2005;59.28;1
Formentera;"COMPROMÍS AMB FORMENTERA";383;11.32;0
Formentera;PODEMOS;0;0.00;0
Formentera;"PARTIDO POPULAR";904;26.73;0
Fuerteventura;"COALICIÓN CANARIA-PARTIDO NACIONALISTA CANARIO";9347;27.97;3
Fuerteventura;"PARTIDO SOCIALISTA OBRERO ESPAÑOL";5680;17.00;2
Fuerteventura;PODEMOS;4149;12.42;1
Fuerteventura;"PARTIDO POPULAR";4519;13.52;1
Fuerteventura;"MOVIMIENTO POR LA UNIDAD DEL PUEBLO CANARIO";68;0.20;0
Fuerteventura;"ASAMBLEAS MUNICIPALES DE FUERTEVENTURA";1369;4.10;0
Fuerteventura;"NUEVA CANARIAS";2279;6.82;0
Fuerteventura;"COALICION CANARIA-PARTIDO NACIONALISTA CANARIO";0;0.00;0
Fuerteventura;"CIUDADANOS-PARTIDO DE LA CIUDADANIA";1393;4.17;0
Fuerteventura;"UNIÓN PROGRESO Y DEMOCRACIA";260;0.78;0
Fuerteventura;"PARTIDO ANIMALISTA CONTRA EL MALTRATO ANIMAL";316;0.95;0
Fuerteventura;UNIDOS;2385;7.14;0
Fuerteventura;"ALTERNATIVA NACIONALISTA CANARIA";576;1.72;0
Fuerteventura;"CANARIAS DECIDE: IZQUIERDA UNIDA CANARIA-LOS VERDES-UNIDAD DEL PUEBLO-ALTERNATIVA REPUBLICANA";471;1.41;0
"Gran Canaria";"PARTIDO POPULAR";78770;20.34;4
"Gran Canaria";"NUEVA CANARIAS";71243;18.40;4
"Gran Canaria";"PARTIDO SOCIALISTA OBRERO ESPAÑOL";67814;17.51;3
"Gran Canaria";PODEMOS;66043;17.05;3
"Gran Canaria";"COALICIÓN CANARIA-PARTIDO NACIONALISTA CANARIO";24254;6.26;1
"Gran Canaria";UNIDOS;23033;5.95;0
"Gran Canaria";"PARTIDO COMUNISTA DEL PUEBLO CANARIO";1120;0.29;0
"Gran Canaria";"MOVIMIENTO POR LA UNIDAD DEL PUEBLO CANARIO";770;0.20;0
"Gran Canaria";"MAS POR TELDE";3428;0.89;0
"Gran Canaria";"COALICION CANARIA-PARTIDO NACIONALISTA CANARIO";0;0.00;0
"Gran Canaria";"CIUDADANOS-PARTIDO DE LA CIUDADANIA";24408;6.30;0
"Gran Canaria";"UNIÓN PROGRESO Y DEMOCRACIA";3627;0.94;0
"Gran Canaria";"PARTIDO ANIMALISTA CONTRA EL MALTRATO ANIMAL";4105;1.06;0
"Gran Canaria";VOX;997;0.26;0
"Gran Canaria";"CANARIAS DECIDE: IZQUIERDA UNIDA CANARIA-LOS VERDES-UNIDAD DEL PUEBLO-ALTERNATIVA REPUBLICANA";7257;1.87;0
"Gran Canaria";"AGRUPACIÓN DE ELECTORES RECORTES 0 GRAN CANARIA";735;0.19;0
"Gran Canaria";"ESCAÑOS EN BLANCO";542;0.14;0
"Gran Canaria";"ALTERNATIVA NACIONALISTA CANARIA";837;0.22;0
"Gran Canaria";"SOLIDARIDAD Y AUTOGESTION INTERNACIONALISTA";418;0.11;0
"Gran Canaria";"POR UN MUNDO MAS JUSTO";929;0.24;0
Guadalajara;"PARTIDO SOCIALISTA OBRERO ESPAÑOL";37208;30.02;2
Guadalajara;"PARTIDO POPULAR";41768;33.70;2
Guadalajara;PODEMOS;18113;14.61;1
Guadalajara;"GANEMOS CASTILLA-LA MANCHA-LOS VERDES-IZQUIERDA UNIDA";4147;3.35;0
Guadalajara;VOX;1208;0.97;0
Guadalajara;"PARTIDO ANIMALISTA CONTRA EL MALTRATO ANIMAL";1398;1.13;0
Guadalajara;"UNIÓN PROGRESO Y DEMOCRACIA";2048;1.65;0
Guadalajara;"CIUDADANOS-PARTIDO DE LA CIUDADANIA";14900;12.02;0
Guadalajara;"UNION DE CIUDADANOS INDEPENDIENTES";530;0.43;0
Guadalajara;"Partido Castellano - Unidad Castellana";335;0.27;0
Huesca;"PARTIDO SOCIALISTA OBRERO ESPAÑOL";29366;26.63;6
Huesca;"PARTIDO POPULAR";29021;26.31;5
Huesca;PODEMOS;20240;18.35;4
Huesca;"PARTIDO ARAGONES";10332;9.37;2
Huesca;"CIUDADANOS-PARTIDO DE LA CIUDADANIA";9190;8.33;1
Huesca;"PARTIDO ANIMALISTA CONTRA EL MALTRATO ANIMAL";608;0.55;0
Huesca;"UNIÓN PROGRESO Y DEMOCRACIA";593;0.54;0
Huesca;"PARTIDO COMUNISTA DE LOS PUEBLOS DE ESPAÑA";117;0.11;0
Huesca;"ESCAÑOS EN BLANCO";577;0.52;0
Huesca;"COMPROMISO CON ARAGON";130;0.12;0
Huesca;"CHUNTA ARAGONESISTA";3429;3.11;0
Huesca;"AGRUPACION DE ELECTORES RECORTES CERO";131;0.12;0
Huesca;"IZQUIERDA UNIDA";3586;3.25;0
Huesca;"BLOQUE ARAGONES";56;0.05;0
Huesca;EQUO;368;0.33;0
Huesca;"FEDERACION DE LOS INDEPENDIENTES DE ARAGON";65;0.06;0
"Illes Balears";"PARTIDO POPULAR";121981;28.50;20
"Illes Balears";"PARTIDO SOCIALISTA OBRERO ESPAÑOL";81073;18.94;14
"Illes Balears";PODEMOS-PODEM;62868;14.69;10
"Illes Balears";"MÉS PER MALLORCA-PSM-ENTESA-INICIATIVAVERDS";59069;13.80;6
"Illes Balears";"MÉS PER MENORCA";6568;1.53;3
"Illes Balears";"EL PI - PROPOSTA PER LES ILLES";34060;7.96;3
"Illes Balears";"CIUDADANOS-PARTIDO DE LA CIUDADANIA";25317;5.92;2
"Illes Balears";"GENT X FORMENTERA + PARTIT SOCIALISTA ILLES BALEARS";2005;0.47;1
"Illes Balears";"GUANYEM LES ILLES BALEARS";7105;1.66;0
"Illes Balears";"PARTIDO RENOVADOR DE EIVISSA Y FORMENTERA";374;0.09;0
"Illes Balears";"COMPROMÍS AMB FORMENTERA";383;0.09;0
"Illes Balears";"MAS EIVISSA -CORSARIS DEMOCRATIS";1024;0.24;0
"Illes Balears";"AGRUPACION SOCIAL INDEPENDIENTE";948;0.22;0
"Illes Balears";"ESQUERRA REPUBLICANA-EIVISSA SÍ";758;0.18;0
"Illes Balears";"GENT PER EIVISSA";1645;0.38;0
"Illes Balears";"PARTIDO ANIMALISTA CONTRA EL MALTRATO ANIMAL";3467;0.81;0
"Illes Balears";"UNIÓN PROGRESO Y DEMOCRACIA";3816;0.89;0
"Illes Balears";"CIUDADANOS DE MENORCA UPCM";1935;0.45;0
"Illes Balears";"ESQUERRA DE MENORCA-ESQUERRA UNIDA";1436;0.34;0
"Illes Balears";"RECORTES CERO";891;0.21;0
"Illes Balears";"PROYECTO LIBERAL ESPAÑOL";522;0.12;0
"Illes Balears";"MOVIMIENTO CIUDADANO EPIC IBIZA";977;0.23;0
"Illes Balears";"ALTERNATIVA INSULAR";792;0.19;0
"Illes Balears";"FAMILIA Y VIDA";919;0.21;0
"La Gomera";"AGRUPACION SOCIALISTA GOMERA";5089;42.83;3
"La Gomera";"PARTIDO SOCIALISTA OBRERO ESPAÑOL";1945;16.37;1
"La Gomera";"NUEVA CANARIAS";743;6.25;0
"La Gomera";"CIUDADANOS-PARTIDO DE LA CIUDADANIA";250;2.10;0
"La Gomera";"UNIÓN PROGRESO Y DEMOCRACIA";13;0.11;0
"La Gomera";"PARTIDO ANIMALISTA CONTRA EL MALTRATO ANIMAL";86;0.72;0
"La Gomera";PODEMOS;1037;8.73;0
"La Gomera";"CANARIAS DECIDE: IZQUIERDA UNIDA CANARIA-LOS VERDES-UNIDAD DEL PUEBLO-ALTERNATIVA REPUBLICANA";143;1.20;0
"La Gomera";"PARTIDO POPULAR";1216;10.23;0
"La Gomera";"COALICIÓN CANARIA-PARTIDO NACIONALISTA CANARIO";1239;10.43;0
"La Gomera";"MOVIMIENTO POR LA UNIDAD DEL PUEBLO CANARIO";15;0.13;0
"La Palma";"PARTIDO POPULAR";10262;24.81;3
"La Palma";"COALICIÓN CANARIA-PARTIDO NACIONALISTA CANARIO";12407;30.00;3
"La Palma";"PARTIDO SOCIALISTA OBRERO ESPAÑOL";10134;24.50;2
"La Palma";"MOVIMIENTO POR LA UNIDAD DEL PUEBLO CANARIO";151;0.37;0
"La Palma";"NUEVA CANARIAS";1155;2.79;0
"La Palma";"CIUDADANOS-PARTIDO DE LA CIUDADANIA";1820;4.40;0
"La Palma";"COALICION CANARIA-PARTIDO NACIONALISTA CANARIO";0;0.00;0
"La Palma";"UNIÓN PROGRESO Y DEMOCRACIA";451;1.09;0
"La Palma";"PARTIDO ANIMALISTA CONTRA EL MALTRATO ANIMAL";366;0.88;0
"La Palma";"AGRUPACION DE ELECTORES RECORTES CERO";92;0.22;0
"La Palma";PODEMOS;2703;6.54;0
"La Palma";"CANARIAS DECIDE: IZQUIERDA UNIDA CANARIA-LOS VERDES-UNIDAD DEL PUEBLO-ALTERNATIVA REPUBLICANA";1068;2.58;0
"La Rioja";"PARTIDO POPULAR";62758;38.49;15
"La Rioja";"PARTIDO SOCIALISTA OBRERO ESPAÑOL";43536;26.70;10
"La Rioja";"CIUDADANOS-PARTIDO DE LA CIUDADANÍA";17138;10.51;4
"La Rioja";PODEMOS;18298;11.22;4
"La Rioja";"PARTIDO ANIMALISTA CONTRA EL MALTRATO ANIMAL";1193;0.73;0
"La Rioja";"CAMBIA LA RIOJA-IU-EQUO";6772;4.15;0
"La Rioja";"PARTIDO COMUNISTA DE LOS PUEBLOS DE ESPAÑA";519;0.32;0
"La Rioja";"UNIÓN, PROGRESO Y DEMOCRACIA";2140;1.31;0
"La Rioja";"PARTIDO RIOJANO";7244;4.44;0
"La Rioja";"PARTIDOS ESCAÑOS EN BLANCO";522;0.32;0
Lanzarote;"COALICIÓN CANARIA-PARTIDO NACIONALISTA CANARIO";10009;22.38;3
Lanzarote;"PARTIDO SOCIALISTA OBRERO ESPAÑOL";9405;21.03;2
Lanzarote;"PARTIDO POPULAR";5835;13.04;1
Lanzarote;"NUEVA CANARIAS";3692;8.25;1
Lanzarote;PODEMOS;6507;14.55;1
Lanzarote;"MOVIMIENTO POR LA UNIDAD DEL PUEBLO CANARIO";136;0.30;0
Lanzarote;"COALICION CANARIA-PARTIDO NACIONALISTA CANARIO";0;0.00;0
Lanzarote;"CIUDADANOS-PARTIDO DE LA CIUDADANIA";2698;6.03;0
Lanzarote;"UNIÓN PROGRESO Y DEMOCRACIA";194;0.43;0
Lanzarote;"PARTIDO ANIMALISTA CONTRA EL MALTRATO ANIMAL";558;1.25;0
Lanzarote;UNIDOS;3254;7.27;0
Lanzarote;"ALTERNATIVA NACIONALISTA CANARIA";344;0.77;0
Lanzarote;"CANARIAS DECIDE: IZQUIERDA UNIDA CANARIA-LOS VERDES-UNIDAD DEL PUEBLO-ALTERNATIVA REPUBLICANA";981;2.19;0
León;"PARTIDO SOCIALISTA OBRERO ESPAÑOL";71705;27.34;5
León;"PARTIDO POPULAR";84326;32.15;5
León;PODEMOS;32979;12.57;2
León;"CIUDADANOS-PARTIDO DE LA CIUDADANIA";23377;8.91;1
León;"UNION DEL PUEBLO LEONES";18325;6.99;1
León;VOX;1199;0.46;0
León;"DEMOCRACIA NACIONAL";446;0.17;0
León;"PARTIDO ANIMALISTA CONTRA EL MALTRATO ANIMAL";1740;0.66;0
León;"UNIÓN PROGRESO Y DEMOCRACIA";1862;0.71;0
León;"PARTIDO COMUNISTA DE LOS PUEBLOS DE ESPAÑA";533;0.20;0
León;"CIUDADANOS RURALES AGRUPADOS";1673;0.64;0
León;"PARTIDO CASTELLANO-TIERRA COMUNERA";92;0.04;0
León;"COALICION POR EL BIERZO";5026;1.92;0
León;"PARTIDO REGIONALISTA DEL PAIS LEONES";465;0.18;0
León;"IZQUIERDA UNIDA-EQUO: CONVERGENCIA POR CASTILLA Y LEÓN";8991;3.43;0
León;"PARTIDO AUTONOMISTA LEONES-UNIDAD LEONESISTA";1964;0.75;0
León;"PARTIDO REGIONALISTA DE EL BIERZO";722;0.28;0
León;"DEMOCRACIA REGIONALISTA";90;0.03;0
Mallorca;"PARTIDO POPULAR";95444;27.72;10
Mallorca;"PARTIDO SOCIALISTA OBRERO ESPAÑOL";62571;18.17;7
Mallorca;"MÉS PER MALLORCA-PSM-ENTESA-INICIATIVAVERDS";59069;17.15;6
Mallorca;PODEMOS-PODEM;50276;14.60;5
Mallorca;"EL PI - PROPOSTA PER LES ILLES";30387;8.82;3
Mallorca;"CIUDADANOS-PARTIDO DE LA CIUDADANIA";25317;7.35;2
Mallorca;"FAMILIA Y VIDA";919;0.27;0
Mallorca;"GUANYEM ILLES BALEARS";5738;1.67;0
Mallorca;"RECORTES CERO MALLORCA";685;0.20;0
Mallorca;"PARTIDO ANIMALISTA CONTRA EL MALTRATO ANIMAL";3467;1.01;0
Mallorca;"AGRUPACION SOCIAL INDEPENDIENTE";948;0.28;0
Mallorca;"UNIÓN PROGRESO Y DEMOCRACIA";3100;0.90;0
Mallorca;"PROYECTO LIBERAL ESPAÑOL";522;0.15;0
Menorca;"PARTIDO POPULAR";11541;30.72;5
Menorca;"MÉS PER MENORCA";6568;17.48;3
Menorca;"PARTIDO SOCIALISTA OBRERO ESPAÑOL";8453;22.50;3
Menorca;PODEMOS;5195;13.83;2
Menorca;"RECORTES CERO MENORCA";206;0.55;0
Menorca;"EL PI - PROPOSTA PER LES ILLES";1221;3.25;0
Menorca;"ESQUERRA DE MENORCA-ESQUERRA UNIDA";1436;3.82;0
Menorca;"CIUDADANOS DE MENORCA UPCM";1935;5.15;0
Occidente;"Partido Socialista Obrero Español";21835;35.56;3
Occidente;"Partido Popular";16300;26.54;2
Occidente;Podemos;8679;14.13;1
Occidente;"Unión Renovadora Asturiana";245;0.40;0
Occidente;Equo;107;0.17;0
Occidente;"Izquierda Unida de Asturias-Izquierda Xunida d&#39;Asturies";4694;7.64;0
Occidente;"Foro de Ciudadanos";5156;8.40;0
Occidente;"Agrupación de Electores Recortes Cero";40;0.07;0
Occidente;"Andecha Astur";46;0.07;0
Occidente;"Escaños en Blanco";221;0.36;0
Occidente;"Partido Comunista de los Pueblos de España";117;0.19;0
Occidente;"Movimiento Social Republicano";15;0.02;0
Occidente;"Partido Animalista contra el Maltrato Animal";239;0.39;0
Occidente;"Ciudadanos-Partido de la Ciudadanía";2011;3.27;0
Occidente;"Unión Progreso y Democracia";218;0.36;0
Occidente;"Partido Humanista";26;0.04;0
Oriente;"Partido Socialista Obrero Español";13274;32.92;2
Oriente;"Partido Popular";10887;27.00;2
Oriente;Podemos;5310;13.17;1
Oriente;"Partido Humanista";12;0.03;0
Oriente;"Unión Progreso y Democracia";176;0.44;0
Oriente;Equo;125;0.31;0
Oriente;"Izquierda Unida de Asturias-Izquierda Xunida d&#39;Asturies";2438;6.05;0
Oriente;"Foro de Ciudadanos";4990;12.37;0
Oriente;"Agrupación de Electores Recortes Cero";21;0.05;0
Oriente;"Andecha Astur";64;0.16;0
Oriente;"Escaños en Blanco";135;0.33;0
Oriente;"Partido Comunista de los Pueblos de España";39;0.10;0
Oriente;"Movimiento Social Republicano";18;0.04;0
Oriente;"Falange Española de las JONS";59;0.15;0
Oriente;"Partido Animalista contra el Maltrato Animal";193;0.48;0
Oriente;"Ciudadanos-Partido de la Ciudadanía";1652;4.10;0
Palencia;"PARTIDO POPULAR";39313;41.01;4
Palencia;"PARTIDO SOCIALISTA OBRERO ESPAÑOL";27830;29.03;2
Palencia;PODEMOS;10349;10.80;1
Palencia;"FALANGE ESPAÑOLA DE LAS J.O.N.S.";371;0.39;0
Palencia;"CIUDADANOS-PARTIDO DE LA CIUDADANIA";9508;9.92;0
Palencia;"PARTIDO CASTELLANO - TIERRA COMUNERA";650;0.68;0
Palencia;"UNIÓN PROGRESO Y DEMOCRACIA";1104;1.15;0
Palencia;"IU-EQUO: CONVERGENCIA POR CASTILLA Y LEON";3696;3.86;0
Palencia;"ESCAÑOS EN BLANCO";348;0.36;0
Palencia;"DEMOCRACIA REGIONALISTA DE CASTILLA Y LEON";273;0.28;0
Primera;"PARTIDO POPULAR";38694;41.62;4
Primera;"PARTIDO SOCIALISTA OBRERO ESPAÑOL";25993;27.96;2
Primera;PODEMOS;9400;10.11;1
Primera;"CIUDADANOS DE CENTRO DEMOCRÁTICO";926;1.00;0
Primera;"LA ESPAÑA EN MARCHA";72;0.08;0
Primera;"ESCAÑOS EN BLANCO";309;0.33;0
Primera;"MOVIMIENTO DE RENOVACIÓN DEMOCRÁTICO CIUDADANA, MOVIMIENTO RED";80;0.09;0
Primera;"CIUDADANOS-PARTIDO DE LA CIUDADANÍA";6770;7.28;0
Primera;"FORO CENTRO Y DEMOCRACIA";214;0.23;0
Primera;"GANAR LA REGIÓN DE MURCIA.IP (Izquierda Unida-Verdes Región de Murcia y Construyendo la Izquierda-Alternativa Socialista)";7105;7.64;0
Primera;"AGRUPACIÓN ELECTORAL RECORTES CERO";229;0.25;0
Primera;VOX;378;0.41;0
Primera;"PARTIDO ANIMALISTA CONTRA EL MALTRATO ANIMAL";626;0.67;0
Primera;"UNIÓN PROGRESO Y DEMOCRACIA";718;0.77;0
"Principado de Asturias";"Partido Socialista Obrero Español";142080;26.45;14
"Principado de Asturias";"Partido Popular";115935;21.58;11
"Principado de Asturias";Podemos;102178;19.02;9
"Principado de Asturias";"Izquierda Unida de Asturias-Izquierda Xunida d&#39;Asturies";64114;11.93;5
"Principado de Asturias";"Foro de Ciudadanos";44283;8.24;3
"Principado de Asturias";"Ciudadanos-Partido de la Ciudadanía";38197;7.11;3
"Principado de Asturias";"Agrupación de Electores Recortes Cero";413;0.08;0
"Principado de Asturias";"Andecha Astur";970;0.18;0
"Principado de Asturias";"Escaños en Blanco";3411;0.63;0
"Principado de Asturias";"Partido Comunista de los Pueblos de España";1038;0.19;0
"Principado de Asturias";"Movimiento Social Republicano";290;0.05;0
"Principado de Asturias";"Movimiento de Renovación Democrática Ciudadana, Movimiento Red";417;0.08;0
"Principado de Asturias";Vox;3176;0.59;0
"Principado de Asturias";"Partido Animalista contra el Maltrato Animal";3941;0.73;0
"Principado de Asturias";"Falange Española de las JONS";59;0.01;0
"Principado de Asturias";"Unión Progreso y Democracia";4295;0.80;0
"Principado de Asturias";"Partido Humanista";38;0.01;0
"Principado de Asturias";"Unión Renovadora Asturiana";245;0.05;0
"Principado de Asturias";Equo;1954;0.36;0
"Provincia Cantabria";"PARTIDO POPULAR";104438;32.61;13
"Provincia Cantabria";"PARTIDO REGIONALISTA DE CANTABRIA";96070;30.00;12
"Provincia Cantabria";"PARTIDO SOCIALISTA OBRERO ESPAÑOL";44855;14.01;5
"Provincia Cantabria";PODEMOS;28272;8.83;3
"Provincia Cantabria";"CIUDADANOS-PARTIDO DE LA CIUDADANIA";22165;6.92;2
"Provincia Cantabria";"POR CANTABRIA SÍ";1834;0.57;0
"Provincia Cantabria";"PARTIDO ANIMALISTA CONTRA EL MALTRATO ANIMAL";1928;0.60;0
"Provincia Cantabria";"UNIÓN PROGRESO Y DEMOCRACIA";2320;0.72;0
"Provincia Cantabria";"GANEMOS CANTABRIA";1380;0.43;0
"Provincia Cantabria";VOX;1092;0.34;0
"Provincia Cantabria";"IZQUIERDA UNIDA";8066;2.52;0
"Provincia Cantabria";EQUO;1563;0.49;0
"Provincia Cantabria";"SOLIDARIDAD Y AUTOGESTION INTERNACIONALISTA";246;0.08;0
"Provincia Cantabria";"ALTERNATIVA MOTOR Y DEPORTES";487;0.15;0
"Provincia Cantabria";"PARTIDO COMUNISTA DE LOS PUEBLOS DE ESPAÑA";555;0.17;0
"Provincia De La Rioja";"PARTIDO POPULAR";62758;38.49;15
"Provincia De La Rioja";"PARTIDO SOCIALISTA OBRERO ESPAÑOL";43536;26.70;10
"Provincia De La Rioja";"CIUDADANOS-PARTIDO DE LA CIUDADANÍA";17138;10.51;4
"Provincia De La Rioja";PODEMOS;18298;11.22;4
"Provincia De La Rioja";"PARTIDOS ESCAÑOS EN BLANCO";522;0.32;0
"Provincia De La Rioja";"PARTIDO ANIMALISTA CONTRA EL MALTRATO ANIMAL";1193;0.73;0
"Provincia De La Rioja";"CAMBIA LA RIOJA-IU-EQUO";6772;4.15;0
"Provincia De La Rioja";"PARTIDO COMUNISTA DE LOS PUEBLOS DE ESPAÑA";519;0.32;0
"Provincia De La Rioja";"UNIÓN, PROGRESO Y DEMOCRACIA";2140;1.31;0
"Provincia De La Rioja";"PARTIDO RIOJANO";7244;4.44;0
"Provincia Madrid";"PARTIDO POPULAR";1047056;33.10;48
"Provincia Madrid";"PARTIDO SOCIALISTA OBRERO ESPAÑOL";804692;25.44;37
"Provincia Madrid";PODEMOS;587949;18.59;27
"Provincia Madrid";"CIUDADANOS-PARTIDO DE LA CIUDADANÍA";383874;12.14;17
"Provincia Madrid";VOX;37043;1.17;0
"Provincia Madrid";"PARTIDO ANIMALISTA CONTRA EL MALTRATO ANIMAL";32046;1.01;0
"Provincia Madrid";"UNIÓN PROGRESO Y DEMOCRACIA";64468;2.04;0
"Provincia Madrid";"PARTIDO COMUNISTA DE LOS PUEBLOS DE ESPAÑA";3180;0.10;0
"Provincia Madrid";"ALTERNATIVA ESPAÑOLA";2860;0.09;0
"Provincia Madrid";"ESPAÑA 2000";6270;0.20;0
"Provincia Madrid";"AGRUPACIÓN DE ELECTORES RECORTES CERO";4406;0.14;0
"Provincia Madrid";"UNION POR LEGANÉS";5543;0.18;0
"Provincia Madrid";"PARTIDO CASTELLANO-TIERRA COMUNERA";2118;0.07;0
"Provincia Madrid";"IZQUIERDA UNIDA COMUNIDAD DE MADRID - LOS VERDES";130890;4.14;0
"Provincia Madrid";"SOLIDARIDAD Y AUTOGESTIÓN INTERNACIONALISTA";1555;0.05;0
"Provincia Madrid";"LA COALICIÓN NACIONAL";3217;0.10;0
"Provincia Madrid";"FALANGE ESPAÑOLA DE LAS J.O.N.S.";5589;0.18;0
"Provincia Madrid";"PARTIDO LIBERTARIO";1923;0.06;0
"Provincia Madrid";"PARTIDO HUMANISTA";3438;0.11;0
"Provincia Navarra";"UNIÓN DEL PUEBLO NAVARRO";91329;27.30;15
"Provincia Navarra";"GEROA BAI";53034;15.86;9
"Provincia Navarra";"EH BILDU";47843;14.30;8
"Provincia Navarra";"PARTIDO SOCIALISTA DE NAVARRA";44916;13.43;7
"Provincia Navarra";"PODEMOS-AHAL DUGU";45848;13.71;7
"Provincia Navarra";"PARTIDO POPULAR";13080;3.91;2
"Provincia Navarra";"COALICION IZQUIERDA-EZKERRA";12395;3.71;2
"Provincia Navarra";"REPRESENTACIÓN CANNABICA NAVARRA NAFARROAKO ORDEZKARITZA KANABIKOA";1723;0.52;0
"Provincia Navarra";"UNIÓN PROGRESO Y DEMOCRACIA";1708;0.51;0
"Provincia Navarra";"CIUDADANOS PARTIDO DE LA CIUDADANIA";9826;2.94;0
"Provincia Navarra";"EQUO-PARTIDO VERDE EUROPEO EUROPAKO ALDERDI BERDEA";2132;0.64;0
"Provincia Navarra";"PARTIDO ANIMALISTA CONTRA EL MALTRATO ANIMAL";2268;0.68;0
"Provincia Navarra";"LIBERTAD NAVARRA-LIBERTATE NAFARRA";945;0.28;0
"Provincia Navarra";"SOLIDARIDAD Y AUTOGESTION INTERNACIONALISTA";871;0.26;0
Quinta;"PARTIDO POPULAR";11263;41.27;1
Quinta;"PARTIDO SOCIALISTA OBRERO ESPAÑOL";7132;26.14;1
Quinta;PODEMOS;2353;8.62;0
Quinta;"LA ESPAÑA EN MARCHA";14;0.05;0
Quinta;"CIUDADANOS-PARTIDO DE LA CIUDADANÍA";2629;9.63;0
Quinta;"FORO CENTRO Y DEMOCRACIA";18;0.07;0
Quinta;"MOVIMIENTO DE RENOVACIÓN DEMOCRÁTICA CIUDADANA, MOVIMIENTO RED";16;0.06;0
Quinta;"GANAR LA REGIÓN DE MURCIA.IP (Izquierda Unida-Verdes Región de Murcia y Construyendo la Izquierda-Alternativa Socialista)";2250;8.25;0
Quinta;"UNIÓN PROGRESO Y DEMOCRACIA";255;0.93;0
Quinta;"AGRUPACIÓN ELECTORAL RECORTES CERO";30;0.11;0
Quinta;VOX;83;0.30;0
Quinta;"PARTIDO ANIMALISTA CONTRA EL MALTRATO ANIMAL";365;1.34;0
Quinta;"CIUDADANOS DE CENTRO DEMOCRÁTICO";183;0.67;0
Quinta;"ESCAÑOS EN BLANCO";47;0.17;0
"Región de Murcia";"PARTIDO POPULAR";236456;37.39;22
"Región de Murcia";"PARTIDO SOCIALISTA OBRERO ESPAÑOL";151504;23.96;13
"Región de Murcia";PODEMOS;83133;13.15;6
"Región de Murcia";"CIUDADANOS-PARTIDO DE LA CIUDADANÍA";79057;12.50;4
"Región de Murcia";"LA ESPAÑA EN MARCHA";86;0.01;0
"Región de Murcia";"PARTIDO ANIMALISTA CONTRA EL MALTRATO ANIMAL";4731;0.75;0
"Región de Murcia";"UNIÓN PROGRESO Y DEMOCRACIA";10247;1.62;0
"Región de Murcia";"ESCAÑOS EN BLANCO";1977;0.31;0
"Región de Murcia";"FORO CENTRO Y DEMOCRACIA";749;0.12;0
"Región de Murcia";"MOVIMIENTO DE RENOVACIÓN DEMOCRÁTICA CIUDADANA, MOVIMIENTO RED";909;0.14;0
"Región de Murcia";"PARTIDO COMUNISTA DE LOS PUEBLOS DE ESPAÑA";752;0.12;0
"Región de Murcia";"GANAR LA REGIÓN DE MURCIA.IP (Izquierda Unida-Verdes Región de Murcia y Construyendo la Izquierda-Alternativa Socialista)";30423;4.81;0
"Región de Murcia";"AGRUPACIÓN ELECTORAL RECORTES CERO";1430;0.23;0
"Región de Murcia";VOX;5513;0.87;0
"Región de Murcia";"CIUDADANOS DE CENTRO DEMOCRÁTICO";6951;1.10;0
"Región de Murcia";"MOVIMIENTO CIUDADANO CAMPO DE CARTAGENA";8582;1.36;0
Salamanca;"PARTIDO POPULAR";77685;41.53;6
Salamanca;"PARTIDO SOCIALISTA OBRERO ESPAÑOL";47293;25.28;3
Salamanca;"CIUDADANOS-PARTIDO DE LA CIUDADANIA";24907;13.31;1
Salamanca;PODEMOS;20135;10.76;1
Salamanca;"PARTIDO CASTELLANO-TIERRA COMUNERA";411;0.22;0
Salamanca;"UNIÓN PROGRESO Y DEMOCRACIA";2782;1.49;0
Salamanca;"PARTIDO COMUNISTA DE LOS PUEBLOS DE ESPAÑA";358;0.19;0
Salamanca;"PARTIDO ANIMALISTA CONTRA EL MALTRATO ANIMAL";1379;0.74;0
Salamanca;"PARTIDO REGIONALISTA DEL PAIS LEONES";502;0.27;0
Salamanca;"COALICIÓN IU-EQUO: CONVERGENCIA POR CASTILLA Y LEÓN";5594;2.99;0
Salamanca;VOX;1448;0.77;0
Segovia;"PARTIDO POPULAR";33421;40.06;4
Segovia;"PARTIDO SOCIALISTA OBRERO ESPAÑOL";22897;27.44;2
Segovia;PODEMOS;9365;11.22;1
Segovia;"PARTIDO ANIMALISTA CONTRA EL MALTRATO ANIMAL";634;0.76;0
Segovia;"UNIÓN PROGRESO Y DEMOCRACIA";2206;2.64;0
Segovia;"PARTIDO SEGOVIANO DEMOCRÁTICO ESPAÑOL";866;1.04;0
Segovia;"FALANGE ESPAÑOLA DE LAS J.O.N.S.";288;0.35;0
Segovia;VOX;598;0.72;0
Segovia;"IZQUIERDA UNIDA - EQUO: CONVERGENCIA POR CyL";2989;3.58;0
Segovia;"CIUDADANOS-PARTIDO DE LA CIUDADANIA";7563;9.06;0
Segovia;"PARTIDO CASTELLANO - TIERRA COMUNERA: PACTO";615;0.74;0
Segunda;"PARTIDO POPULAR";47029;35.24;5
Segunda;"PARTIDO SOCIALISTA OBRERO ESPAÑOL";28055;21.02;3
Segunda;PODEMOS;19521;14.63;2
Segunda;"CIUDADANOS-PARTIDO DE LA CIUDADANÍA";17769;13.31;1
Segunda;"MOVIMIENTO CIUDADANO CAMPO DE CARTAGENA";8582;6.43;0
Segunda;"CIUDADANOS DE CENTRO DEMOCRÁTICO";1146;0.86;0
Segunda;"ESCAÑOS EN BLANCO";567;0.42;0
Segunda;"MOVIMIENTO DE RENOVACIÓN DEMOCRATICA CIUDADANA, MOVIMIENTO RED";186;0.14;0
Segunda;"GANAR LA REGIÓN DE MURCIA.IP (Izquierda Unida-Verdes Región de Murcia y Construyendo la Izquierda-Alternativa Socialista)";4411;3.30;0
Segunda;"AGRUPACIÓN ELECTORAL RECORTES CERO";399;0.30;0
Segunda;VOX;1449;1.09;0
Segunda;"UNIÓN PROGRESO Y DEMOCRACIA";2241;1.68;0
Soria;"PARTIDO POPULAR";17658;36.89;3
Soria;"PARTIDO SOCIALISTA OBRERO ESPAÑOL";14909;31.15;2
Soria;"UNIÓN PROGRESO Y DEMOCRACIA";457;0.95;0
Soria;"PARTIDO CASTELLANO-TIERRA COMUNERA";266;0.56;0
Soria;PODEMOS;5740;11.99;0
Soria;"CIUDADANOS-PARTIDO DE LA CIUDADANIA";5808;12.13;0
Soria;"IZQUIERDA UNIDA-EQUO";1366;2.85;0
Tenerife;"COALICIÓN CANARIA-PARTIDO NACIONALISTA CANARIO";104648;27.53;6
Tenerife;"PARTIDO SOCIALISTA OBRERO ESPAÑOL";83340;21.93;4
Tenerife;"PARTIDO POPULAR";66597;17.52;3
Tenerife;PODEMOS;50830;13.37;2
Tenerife;"MOVIMIENTO POR LA UNIDAD DEL PUEBLO CANARIO";753;0.20;0
Tenerife;"PARTIDO COMUNISTA DEL PUEBLO DE CANARIAS";722;0.19;0
Tenerife;"NUEVA CANARIAS";13151;3.46;0
Tenerife;"CIUDADANOS-PARTIDO DE LA CIUDADANIA";23112;6.08;0
Tenerife;"UNIÓN PROGRESO Y DEMOCRACIA";3610;0.95;0
Tenerife;"PARTIDO ANIMALISTA CONTRA EL MALTRATO ANIMAL";5753;1.51;0
Tenerife;"AGRUPACION DE ELECTORES RECORTES CERO";646;0.17;0
Tenerife;VOX;849;0.22;0
Tenerife;"ALTERNATIVA NACIONALISTA CANARIA";3773;0.99;0
Tenerife;"ESCAÑOS EN BLANCO";800;0.21;0
Tenerife;"COALICIÓN ELECTORAL UNIDOS";3705;0.97;0
Tenerife;"CANARIAS DECIDE: IZQUIERDA UNIDA CANARIA-LOS VERDES-UNIDAD DEL PUEBLO-ALTERNATIVA REPUBLICANA";9898;2.60;0
Tenerife;"POR UN MUNDO MAS JUSTO";887;0.23;0
Tercera;"PARTIDO POPULAR";121962;37.19;10
Tercera;"PARTIDO SOCIALISTA OBRERO ESPAÑOL";70583;21.53;5
Tercera;PODEMOS;47655;14.53;3
Tercera;"CIUDADANOS-PARTIDO DE LA CIUDADANÍA";47106;14.37;3
Tercera;"PARTIDO COMUNISTA DE LOS PUEBLOS DE ESPAÑA";752;0.23;0
Tercera;"ESCAÑOS EN BLANCO";980;0.30;0
Tercera;"MOVIMIENTO DE RENOVACIÓN DEMOCRÁTICA CIUDADANA, MOVIMIENTO RED";603;0.18;0
Tercera;"FORO CENTRO Y DEMOCRACIA";481;0.15;0
Tercera;"GANAR LA REGIÓN DE MURCIA.IP (Izquierda Unida-Verdes Región de Murcia y Construyendo la Izquierda-Alternativa Socialista)";13960;4.26;0
Tercera;"UNIÓN PROGRESO Y DEMOCRACIA";6790;2.07;0
Tercera;"AGRUPACIÓN ELECTORAL RECORTES CERO";715;0.22;0
Tercera;VOX;3472;1.06;0
Tercera;"PARTIDO ANIMALISTA CONTRA EL MALTRATO ANIMAL";3445;1.05;0
Tercera;"CIUDADANOS DE CENTRO DEMOCRÁTICO";4453;1.36;0
Teruel;"PARTIDO POPULAR";20591;27.53;5
Teruel;"PARTIDO SOCIALISTA OBRERO ESPAÑOL";16414;21.95;4
Teruel;PODEMOS;12023;16.08;2
Teruel;"PARTIDO ARAGONES";10261;13.72;2
Teruel;"CIUDADANOS-PARTIDO DE LA CIUDADANIA";5396;7.21;1
Teruel;"PARTIDO ANIMALISTA CONTRA EL MALTRATO ANIMAL";354;0.47;0
Teruel;"COMPROMISO CON ARAGON";1418;1.90;0
Teruel;"RECORTES CERO TERUEL";119;0.16;0
Teruel;"IZQUIERDA UNIDA DE ARAGON";3471;4.64;0
Teruel;"CHUNTA ARAGONESISTA";2570;3.44;0
Teruel;"ESCAÑOS EN BLANCO";275;0.37;0
Teruel;"FEDERACION DE LOS INDEPENDIENTES DE ARAGON";80;0.11;0
Toledo;"PARTIDO POPULAR";139222;38.27;4
Toledo;"PARTIDO SOCIALISTA OBRERO ESPAÑOL";134356;36.94;4
Toledo;PODEMOS;31875;8.76;1
Toledo;VOX;1868;0.51;0
Toledo;"LOS VERDES-GRUPO VERDE";1472;0.40;0
Toledo;"CIUDADANOS-PARTIDO DE LA CIUDADANIA";30749;8.45;0
Toledo;"UNION DE CIUDADANOS INDEPENDIENTES";1151;0.32;0
Toledo;"PARTIDO COMUNISTA DE LOS PUEBLOS DE ESPAÑA";473;0.13;0
Toledo;"PARTIDO CASTELLANO - UNIDAD CASTELLANA";379;0.10;0
Toledo;"PARTIDO ANIMALISTA CONTRA EL MALTRATO ANIMAL";3114;0.86;0
Toledo;"UNIÓN PROGRESO Y DEMOCRACIA";2879;0.79;0
Toledo;"GANEMOS CASTILLA-LA MANCHA-LOS VERDES-IZQUIERDA UNIDA";10786;2.97;0
"Valencia / València";"PARTIDO POPULAR";343226;24.98;12
"Valencia / València";"COALICIÓ COMPROMÍS: BLOC - INICIATIVA - VERDS";310215;22.58;10
"Valencia / València";"PARTIDO SOCIALISTA OBRERO ESPAÑOL";252436;18.37;8
"Valencia / València";PODEMOS;147919;10.77;5
"Valencia / València";"CIUDADANOS-PARTIDO DE LA CIUDADANIA";159915;11.64;5
"Valencia / València";"GUANYEM PAÍS VALENCIÀ";7990;0.58;0
"Valencia / València";AVANT;1307;0.10;0
"Valencia / València";"RECORTES CERO VALENCIA";1385;0.10;0
"Valencia / València";VOX;6226;0.45;0
"Valencia / València";"LA COALICIÓN NACIONAL";405;0.03;0
"Valencia / València";"SOM VALENCIANS";6300;0.46;0
"Valencia / València";"FALANGE ESPAÑOLA DE LAS J.O.N.S.";1511;0.11;0
"Valencia / València";"PARTIDO COMUNISTA DE LOS PUEBLOS DE ESPAÑA";1135;0.08;0
"Valencia / València";"ESQUERRA UNIDA PAÍS VALENCIÀ - ELS VERDS - ESQUERRA REPUBLICANA PAÍS VALENCIÀ - ALTERNATIVA SOCIALISTA: ACORD CIUTADÀ";61703;4.49;0
"Valencia / València";"MOVIMIENTO SOCIAL REPUBLICANO";594;0.04;0
"Valencia / València";"ESCAÑOS EN BLANCO";1783;0.13;0
"Valencia / València";"POBLE DEMOCRÀTIC PODEM";2190;0.16;0
"Valencia / València";"PARTIDO LIBERTARIO";610;0.04;0
"Valencia / València";"COALICIÓ JUNTS";636;0.05;0
"Valencia / València";"UNITS X VALENCIA";1427;0.10;0
"Valencia / València";"PARTIDO ANIMALISTA CONTRA EL MALTRATO ANIMAL";10605;0.77;0
"Valencia / València";"UNIÓN PROGRESO Y DEMOCRACIA";14286;1.04;0
"Valencia / València";"FORO DEMÓCRATA";416;0.03;0
"Valencia / València";"ESPAÑA 2000";4898;0.36;0
Valladolid;"PARTIDO POPULAR";103216;35.74;7
Valladolid;"PARTIDO SOCIALISTA OBRERO ESPAÑOL";72201;25.00;4
Valladolid;PODEMOS;37671;13.04;2
Valladolid;"CIUDADANOS-PARTIDO DE LA CIUDADANIA";25814;8.94;1
Valladolid;"IU-EQUO: CONVERGENCIA POR CASTILLA Y LEON";17933;6.21;1
Valladolid;"DEMOCRACIA NACIONAL";442;0.15;0
Valladolid;VOX;3099;1.07;0
Valladolid;"PARTIDO CASTELLANO-TIERRA COMUNERA";705;0.24;0
Valladolid;"FALANGE ESPAÑOLA DE LAS J.O.N.S.";670;0.23;0
Valladolid;"CANDIDATURA INDEPENDIENTE-CIUDADANOS DE CENTRO DEMOCRÁTICO";12735;4.41;0
Valladolid;"CIUDADANOS LIBRES UNIDOS";733;0.25;0
Valladolid;"DEMOCRACIA REGIONALISTA DE CASTILLA Y LEON";474;0.16;0
Valladolid;"SOLIDARIDAD Y AUTOGESTION INTERNACIONALISTA";391;0.14;0
Valladolid;"PARTIDO ANIMALISTA CONTRA EL MALTRATO ANIMAL";2049;0.71;0
Valladolid;"UNIÓN PROGRESO Y DEMOCRACIA";4521;1.57;0
Valladolid;"AGRUPACION DE ELECTORES INDEPENDIENTES ZAMORANOS";144;0.05;0
vila;"PARTIDO POPULAR";43367;45.34;4
vila;"PARTIDO SOCIALISTA OBRERO ESPAÑOL";21067;22.02;2
vila;"CIUDADANOS-PARTIDO DE LA CIUDADANIA";11425;11.94;1
vila;PODEMOS;9640;10.08;0
vila;VOX;862;0.90;0
vila;"PARTIDO ANIMALISTA CONTRA EL MALTRATO ANIMAL";795;0.83;0
vila;"FALANGE ESPAÑOLA DE LAS J.O.N.S.";453;0.47;0
vila;"UNIÓN PROGRESO Y DEMOCRACIA";2127;2.22;0
vila;"IU-EQUO CONVERGENCIA POR CASTILLA LEON";3785;3.96;0
Zamora;"PARTIDO POPULAR";45068;41.35;4
Zamora;"PARTIDO SOCIALISTA OBRERO ESPAÑOL";27856;25.56;2
Zamora;PODEMOS;11979;10.99;1
Zamora;CIVES;627;0.58;0
Zamora;"PARTIDO CASTELLANO-TIERRA COMUNERA";98;0.09;0
Zamora;"AHORA DECIDE-ALTERNATIVA SOCIALISTA";2279;2.09;0
Zamora;"PARTIDO REGIONALISTA DEL PAIS LEONES";358;0.33;0
Zamora;"CIUDADANOS-PARTIDO DE LA CIUDADANIA";8446;7.75;0
Zamora;"UNION DEL PUEBLO LEONES";742;0.68;0
Zamora;"IZQUIERDA UNIDA-EQUO: CONVERGENCIA POR CASTILLA Y LEÓN";4728;4.34;0
Zamora;"PARTIDO ANIMALISTA CONTRA EL MALTRATO ANIMAL";548;0.50;0
Zamora;"UNIÓN PROGRESO Y DEMOCRACIA";955;0.88;0
Zamora;"AGRUPACION DE ELECTORES INDEPENDIENTES ZAMORANOS";2230;2.05;0
Zaragoza;"PARTIDO POPULAR";132145;27.77;11
Zaragoza;"PARTIDO SOCIALISTA OBRERO ESPAÑOL";95748;20.12;8
Zaragoza;PODEMOS;103291;21.71;8
Zaragoza;"CIUDADANOS-PARTIDO DE LA CIUDADANIA";47602;10.00;3
Zaragoza;"CHUNTA ARAGONESISTA";24335;5.11;2
Zaragoza;"PARTIDO ARAGONES";24984;5.25;2
Zaragoza;"IZQUIERDA UNIDA";20879;4.39;1
Zaragoza;"COMPROMISO CON ARAGON";1291;0.27;0
Zaragoza;"ESCAÑOS EN BLANCO";4402;0.93;0
Zaragoza;"AGRUPACION ELECTORAL RECORTES CERO ZARAGOZA";811;0.17;0
Zaragoza;EQUO;863;0.18;0
Zaragoza;"PARTIDO ANIMALISTA CONTRA EL MALTRATO ANIMAL";3933;0.83;0
Zaragoza;"UNIÓN PROGRESO Y DEMOCRACIA";5044;1.06;0
Zaragoza;"FEDERACION DE LOS INDEPENDIENTES DE ARAGON";643;0.14;0
Zaragoza;"BLOQUE ARAGONES";616;0.13;0
Zaragoza;"PARTIDO COMUNISTA DE LOS PUEBLOS DE ESPAÑA";500;0.11;0
