municipio;partido;votos;porcentaje;escaños
Albacete;"PARTIDO POPULAR";78094;36.61;3
Albacete;"PARTIDO SOCIALISTA OBRERO ESPAÑOL";72031;33.77;2
Albacete;PODEMOS;24036;11.27;1
"Alicante / Alacant";"PARTIDO POPULAR";223950;27.33;11
"Alicante / Alacant";"PARTIDO SOCIALISTA OBRERO ESPAÑOL";182984;22.33;9
"Alicante / Alacant";"COALICIÓ COMPROMÍS: BLOC - INICIATIVA - VERDS";100878;12.31;5
"Alicante / Alacant";PODEMOS;98131;11.98;5
"Alicante / Alacant";"CIUDADANOS-PARTIDO DE LA CIUDADANIA";114306;13.95;5
Aragón;"PARTIDO POPULAR";181757;27.50;21
Aragón;"PARTIDO SOCIALISTA OBRERO ESPAÑOL";141528;21.41;18
Aragón;PODEMOS;135554;20.51;14
Aragón;"PARTIDO ARAGONES";45577;6.90;6
Aragón;"CIUDADANOS-PARTIDO DE LA CIUDADANIA";62188;9.41;5
Aragón;"CHUNTA ARAGONESISTA";30334;4.59;2
Aragón;"IZQUIERDA UNIDA DE ARAGON";27936;4.23;1
Badajoz;"PARTIDO SOCIALISTA OBRERO ESPAÑOL-SIEX";170715;43.69;18
Badajoz;"PARTIDO POPULAR";141825;36.29;15
Badajoz;PODEMOS;28311;7.25;3
Burgos;"PARTIDO POPULAR";66897;36.57;5
Burgos;"PARTIDO SOCIALISTA OBRERO ESPAÑOL";45299;24.76;3
Burgos;PODEMOS;25779;14.09;2
Burgos;"CIUDADANOS-PARTIDO DE LA CIUDADANIA";22078;12.07;1
Cáceres;"PARTIDO POPULAR";93977;38.17;13
Cáceres;"PARTIDO SOCIALISTA OBRERO ESPAÑOL-SIEX";93649;38.04;12
Cáceres;PODEMOS;22562;9.16;3
Cáceres;"CIUDADANOS-PARTIDO DE LA CIUDADANIA";12540;5.09;1
Canarias;"COALICIÓN CANARIA-PARTIDO NACIONALISTA CANARIO";164407;18.17;18
Canarias;"PARTIDO SOCIALISTA OBRERO ESPAÑOL";179651;19.86;15
Canarias;"PARTIDO POPULAR";168232;18.59;12
Canarias;PODEMOS;131672;14.55;7
Canarias;"NUEVA CANARIAS";92655;10.24;5
Canarias;"AGRUPACION SOCIALISTA GOMERA";5089;0.56;3
Cantabria;"PARTIDO POPULAR";104438;32.61;13
Cantabria;"PARTIDO REGIONALISTA DE CANTABRIA";96070;30.00;12
Cantabria;"PARTIDO SOCIALISTA OBRERO ESPAÑOL";44855;14.01;5
Cantabria;PODEMOS;28272;8.83;3
Cantabria;"CIUDADANOS-PARTIDO DE LA CIUDADANIA";22165;6.92;2
"Castellón / Castelló";"PARTIDO POPULAR";86010;29.10;8
"Castellón / Castelló";"PARTIDO SOCIALISTA OBRERO ESPAÑOL";69766;23.60;6
"Castellón / Castelló";"COALICIÓ COMPROMÍS: BLOC - INICIATIVA - VERDS";41561;14.06;4
"Castellón / Castelló";PODEMOS/PODEM;33546;11.35;3
"Castellón / Castelló";"CIUDADANOS-PARTIDO DE LA CIUDADANIA";32175;10.88;3
"Castilla - La Mancha";"PARTIDO POPULAR";410886;37.51;16
"Castilla - La Mancha";"PARTIDO SOCIALISTA OBRERO ESPAÑOL";395544;36.11;14
"Castilla - La Mancha";PODEMOS;106565;9.73;3
"Castilla y León";"PARTIDO POPULAR";510951;37.77;42
"Castilla y León";"PARTIDO SOCIALISTA OBRERO ESPAÑOL";351057;25.95;25
"Castilla y León";PODEMOS;163637;12.10;10
"Castilla y León";"CIUDADANOS-PARTIDO DE LA CIUDADANIA";138926;10.27;5
"Castilla y León";"UNION DEL PUEBLO LEONES";19067;1.41;1
"Castilla y León";"IZQUIERDA UNIDA-EQUO: CONVERGENCIA POR CASTILLA Y LEÓN";56133;4.15;1
Centro;"Partido Socialista Obrero Español";106971;24.56;9
Centro;Podemos;88189;20.25;7
Centro;"Partido Popular";88748;20.38;7
Centro;"Izquierda Unida de Asturias-Izquierda Xunida d&#39;Asturies";56982;13.08;5
Centro;"Foro de Ciudadanos";34137;7.84;3
Centro;"Ciudadanos-Partido de la Ciudadanía";34534;7.93;3
"Ciudad Real";"PARTIDO POPULAR";102569;37.13;4
"Ciudad Real";"PARTIDO SOCIALISTA OBRERO ESPAÑOL";107373;38.87;4
"Comunidad de Madrid";"PARTIDO POPULAR";1047056;33.10;48
"Comunidad de Madrid";"PARTIDO SOCIALISTA OBRERO ESPAÑOL";804692;25.44;37
"Comunidad de Madrid";PODEMOS;587949;18.59;27
"Comunidad de Madrid";"CIUDADANOS-PARTIDO DE LA CIUDADANÍA";383874;12.14;17
"Comunidad Foral de Navarra";"UNIÓN DEL PUEBLO NAVARRO";91329;27.30;15
"Comunidad Foral de Navarra";"GEROA BAI";53034;15.86;9
"Comunidad Foral de Navarra";"EH BILDU";47843;14.30;8
"Comunidad Foral de Navarra";"PODEMOS-AHAL DUGU";45848;13.71;7
"Comunidad Foral de Navarra";"PARTIDO SOCIALISTA DE NAVARRA";44916;13.43;7
"Comunidad Foral de Navarra";"COALICION IZQUIERDA-EZKERRA";12395;3.71;2
"Comunidad Foral de Navarra";"PARTIDO POPULAR";13080;3.91;2
"Comunitat Valenciana";"PARTIDO POPULAR";653186;26.25;31
"Comunitat Valenciana";"PARTIDO SOCIALISTA OBRERO ESPAÑOL";505186;20.30;23
"Comunitat Valenciana";"COALICIÓ COMPROMÍS: BLOC - INICIATIVA - VERDS";452654;18.19;19
"Comunitat Valenciana";PODEMOS;279596;11.23;13
"Comunitat Valenciana";"CIUDADANOS-PARTIDO DE LA CIUDADANIA";306396;12.31;13
Cuarta;"PARTIDO SOCIALISTA OBRERO ESPAÑOL";19741;38.86;2
Cuarta;"PARTIDO POPULAR";17508;34.47;2
Cuenca;"PARTIDO POPULAR";49233;41.63;3
Cuenca;"PARTIDO SOCIALISTA OBRERO ESPAÑOL";44576;37.69;2
Eivissa;"PARTIDO POPULAR";14092;33.01;5
Eivissa;"PARTIDO SOCIALISTA OBRERO ESPAÑOL";10049;23.54;4
Eivissa;PODEMOS;7397;17.33;3
"El Hierro";"COALICIÓN CANARIA-AGRUPACIÓN HERREÑA INDEPENDIENTE";2503;41.64;2
"El Hierro";"PARTIDO SOCIALISTA OBRERO ESPAÑOL";1333;22.18;1
Extremadura;"PARTIDO SOCIALISTA OBRERO ESPAÑOL-SIEX";264364;41.50;30
Extremadura;"PARTIDO POPULAR";235802;37.02;28
Extremadura;PODEMOS;50873;7.99;6
Extremadura;"CIUDADANOS-PARTIDO DE LA CIUDADANIA";27833;4.37;1
Formentera;"GENT X FORMENTERA + PARTIT SOCIALISTA ILLES BALEARS";2005;59.28;1
Fuerteventura;"COALICIÓN CANARIA-PARTIDO NACIONALISTA CANARIO";9347;27.97;3
Fuerteventura;"PARTIDO SOCIALISTA OBRERO ESPAÑOL";5680;17.00;2
Fuerteventura;"PARTIDO POPULAR";4519;13.52;1
Fuerteventura;PODEMOS;4149;12.42;1
"Gran Canaria";"NUEVA CANARIAS";71243;18.40;4
"Gran Canaria";"PARTIDO POPULAR";78770;20.34;4
"Gran Canaria";PODEMOS;66043;17.05;3
"Gran Canaria";"PARTIDO SOCIALISTA OBRERO ESPAÑOL";67814;17.51;3
"Gran Canaria";"COALICIÓN CANARIA-PARTIDO NACIONALISTA CANARIO";24254;6.26;1
Guadalajara;"PARTIDO POPULAR";41768;33.70;2
Guadalajara;"PARTIDO SOCIALISTA OBRERO ESPAÑOL";37208;30.02;2
Guadalajara;PODEMOS;18113;14.61;1
Huesca;"PARTIDO SOCIALISTA OBRERO ESPAÑOL";29366;26.63;6
Huesca;"PARTIDO POPULAR";29021;26.31;5
Huesca;PODEMOS;20240;18.35;4
Huesca;"PARTIDO ARAGONES";10332;9.37;2
Huesca;"CIUDADANOS-PARTIDO DE LA CIUDADANIA";9190;8.33;1
"Illes Balears";"PARTIDO POPULAR";121981;28.50;20
"Illes Balears";"PARTIDO SOCIALISTA OBRERO ESPAÑOL";81073;18.94;14
"Illes Balears";PODEMOS-PODEM;62868;14.69;10
"Illes Balears";"MÉS PER MALLORCA-PSM-ENTESA-INICIATIVAVERDS";59069;13.80;6
"Illes Balears";"EL PI - PROPOSTA PER LES ILLES";34060;7.96;3
"Illes Balears";"MÉS PER MENORCA";6568;1.53;3
"Illes Balears";"CIUDADANOS-PARTIDO DE LA CIUDADANIA";25317;5.92;2
"Illes Balears";"GENT X FORMENTERA + PARTIT SOCIALISTA ILLES BALEARS";2005;0.47;1
"La Gomera";"AGRUPACION SOCIALISTA GOMERA";5089;42.83;3
"La Gomera";"PARTIDO SOCIALISTA OBRERO ESPAÑOL";1945;16.37;1
"La Palma";"PARTIDO POPULAR";10262;24.81;3
"La Palma";"COALICIÓN CANARIA-PARTIDO NACIONALISTA CANARIO";12407;30.00;3
"La Palma";"PARTIDO SOCIALISTA OBRERO ESPAÑOL";10134;24.50;2
"La Rioja";"PARTIDO POPULAR";62758;38.49;15
"La Rioja";"PARTIDO SOCIALISTA OBRERO ESPAÑOL";43536;26.70;10
"La Rioja";"CIUDADANOS-PARTIDO DE LA CIUDADANÍA";17138;10.51;4
"La Rioja";PODEMOS;18298;11.22;4
Lanzarote;"COALICIÓN CANARIA-PARTIDO NACIONALISTA CANARIO";10009;22.38;3
Lanzarote;"PARTIDO SOCIALISTA OBRERO ESPAÑOL";9405;21.03;2
Lanzarote;"NUEVA CANARIAS";3692;8.25;1
Lanzarote;"PARTIDO POPULAR";5835;13.04;1
Lanzarote;PODEMOS;6507;14.55;1
León;"PARTIDO POPULAR";84326;32.15;5
León;"PARTIDO SOCIALISTA OBRERO ESPAÑOL";71705;27.34;5
León;PODEMOS;32979;12.57;2
León;"CIUDADANOS-PARTIDO DE LA CIUDADANIA";23377;8.91;1
León;"UNION DEL PUEBLO LEONES";18325;6.99;1
Mallorca;"PARTIDO POPULAR";95444;27.72;10
Mallorca;"PARTIDO SOCIALISTA OBRERO ESPAÑOL";62571;18.17;7
Mallorca;"MÉS PER MALLORCA-PSM-ENTESA-INICIATIVAVERDS";59069;17.15;6
Mallorca;PODEMOS-PODEM;50276;14.60;5
Mallorca;"EL PI - PROPOSTA PER LES ILLES";30387;8.82;3
Mallorca;"CIUDADANOS-PARTIDO DE LA CIUDADANIA";25317;7.35;2
Menorca;"PARTIDO POPULAR";11541;30.72;5
Menorca;"PARTIDO SOCIALISTA OBRERO ESPAÑOL";8453;22.50;3
Menorca;"MÉS PER MENORCA";6568;17.48;3
Menorca;PODEMOS;5195;13.83;2
Occidente;"Partido Socialista Obrero Español";21835;35.56;3
Occidente;"Partido Popular";16300;26.54;2
Occidente;Podemos;8679;14.13;1
Oriente;"Partido Popular";10887;27.00;2
Oriente;"Partido Socialista Obrero Español";13274;32.92;2
Oriente;Podemos;5310;13.17;1
Palencia;"PARTIDO POPULAR";39313;41.01;4
Palencia;"PARTIDO SOCIALISTA OBRERO ESPAÑOL";27830;29.03;2
Palencia;PODEMOS;10349;10.80;1
Primera;"PARTIDO POPULAR";38694;41.62;4
Primera;"PARTIDO SOCIALISTA OBRERO ESPAÑOL";25993;27.96;2
Primera;PODEMOS;9400;10.11;1
"Principado de Asturias";"Partido Socialista Obrero Español";142080;26.45;14
"Principado de Asturias";"Partido Popular";115935;21.58;11
"Principado de Asturias";Podemos;102178;19.02;9
"Principado de Asturias";"Izquierda Unida de Asturias-Izquierda Xunida d&#39;Asturies";64114;11.93;5
"Principado de Asturias";"Foro de Ciudadanos";44283;8.24;3
"Principado de Asturias";"Ciudadanos-Partido de la Ciudadanía";38197;7.11;3
"Provincia Cantabria";"PARTIDO POPULAR";104438;32.61;13
"Provincia Cantabria";"PARTIDO REGIONALISTA DE CANTABRIA";96070;30.00;12
"Provincia Cantabria";"PARTIDO SOCIALISTA OBRERO ESPAÑOL";44855;14.01;5
"Provincia Cantabria";PODEMOS;28272;8.83;3
"Provincia Cantabria";"CIUDADANOS-PARTIDO DE LA CIUDADANIA";22165;6.92;2
"Provincia De La Rioja";"PARTIDO POPULAR";62758;38.49;15
"Provincia De La Rioja";"PARTIDO SOCIALISTA OBRERO ESPAÑOL";43536;26.70;10
"Provincia De La Rioja";"CIUDADANOS-PARTIDO DE LA CIUDADANÍA";17138;10.51;4
"Provincia De La Rioja";PODEMOS;18298;11.22;4
"Provincia Madrid";"PARTIDO POPULAR";1047056;33.10;48
"Provincia Madrid";"PARTIDO SOCIALISTA OBRERO ESPAÑOL";804692;25.44;37
"Provincia Madrid";PODEMOS;587949;18.59;27
"Provincia Madrid";"CIUDADANOS-PARTIDO DE LA CIUDADANÍA";383874;12.14;17
"Provincia Navarra";"UNIÓN DEL PUEBLO NAVARRO";91329;27.30;15
"Provincia Navarra";"GEROA BAI";53034;15.86;9
"Provincia Navarra";"EH BILDU";47843;14.30;8
"Provincia Navarra";"PODEMOS-AHAL DUGU";45848;13.71;7
"Provincia Navarra";"PARTIDO SOCIALISTA DE NAVARRA";44916;13.43;7
"Provincia Navarra";"PARTIDO POPULAR";13080;3.91;2
"Provincia Navarra";"COALICION IZQUIERDA-EZKERRA";12395;3.71;2
Quinta;"PARTIDO SOCIALISTA OBRERO ESPAÑOL";7132;26.14;1
Quinta;"PARTIDO POPULAR";11263;41.27;1
"Región de Murcia";"PARTIDO POPULAR";236456;37.39;22
"Región de Murcia";"PARTIDO SOCIALISTA OBRERO ESPAÑOL";151504;23.96;13
"Región de Murcia";PODEMOS;83133;13.15;6
"Región de Murcia";"CIUDADANOS-PARTIDO DE LA CIUDADANÍA";79057;12.50;4
Salamanca;"PARTIDO POPULAR";77685;41.53;6
Salamanca;"PARTIDO SOCIALISTA OBRERO ESPAÑOL";47293;25.28;3
Salamanca;"CIUDADANOS-PARTIDO DE LA CIUDADANIA";24907;13.31;1
Salamanca;PODEMOS;20135;10.76;1
Segovia;"PARTIDO POPULAR";33421;40.06;4
Segovia;"PARTIDO SOCIALISTA OBRERO ESPAÑOL";22897;27.44;2
Segovia;PODEMOS;9365;11.22;1
Segunda;"PARTIDO POPULAR";47029;35.24;5
Segunda;"PARTIDO SOCIALISTA OBRERO ESPAÑOL";28055;21.02;3
Segunda;PODEMOS;19521;14.63;2
Segunda;"CIUDADANOS-PARTIDO DE LA CIUDADANÍA";17769;13.31;1
Soria;"PARTIDO POPULAR";17658;36.89;3
Soria;"PARTIDO SOCIALISTA OBRERO ESPAÑOL";14909;31.15;2
Tenerife;"COALICIÓN CANARIA-PARTIDO NACIONALISTA CANARIO";104648;27.53;6
Tenerife;"PARTIDO SOCIALISTA OBRERO ESPAÑOL";83340;21.93;4
Tenerife;"PARTIDO POPULAR";66597;17.52;3
Tenerife;PODEMOS;50830;13.37;2
Tercera;"PARTIDO POPULAR";121962;37.19;10
Tercera;"PARTIDO SOCIALISTA OBRERO ESPAÑOL";70583;21.53;5
Tercera;PODEMOS;47655;14.53;3
Tercera;"CIUDADANOS-PARTIDO DE LA CIUDADANÍA";47106;14.37;3
Teruel;"PARTIDO POPULAR";20591;27.53;5
Teruel;"PARTIDO SOCIALISTA OBRERO ESPAÑOL";16414;21.95;4
Teruel;"PARTIDO ARAGONES";10261;13.72;2
Teruel;PODEMOS;12023;16.08;2
Teruel;"CIUDADANOS-PARTIDO DE LA CIUDADANIA";5396;7.21;1
Toledo;"PARTIDO POPULAR";139222;38.27;4
Toledo;"PARTIDO SOCIALISTA OBRERO ESPAÑOL";134356;36.94;4
Toledo;PODEMOS;31875;8.76;1
"Valencia / València";"PARTIDO POPULAR";343226;24.98;12
"Valencia / València";"COALICIÓ COMPROMÍS: BLOC - INICIATIVA - VERDS";310215;22.58;10
"Valencia / València";"PARTIDO SOCIALISTA OBRERO ESPAÑOL";252436;18.37;8
"Valencia / València";"CIUDADANOS-PARTIDO DE LA CIUDADANIA";159915;11.64;5
"Valencia / València";PODEMOS;147919;10.77;5
Valladolid;"PARTIDO POPULAR";103216;35.74;7
Valladolid;"PARTIDO SOCIALISTA OBRERO ESPAÑOL";72201;25.00;4
Valladolid;PODEMOS;37671;13.04;2
Valladolid;"CIUDADANOS-PARTIDO DE LA CIUDADANIA";25814;8.94;1
Valladolid;"IU-EQUO: CONVERGENCIA POR CASTILLA Y LEON";17933;6.21;1
vila;"PARTIDO POPULAR";43367;45.34;4
vila;"PARTIDO SOCIALISTA OBRERO ESPAÑOL";21067;22.02;2
vila;"CIUDADANOS-PARTIDO DE LA CIUDADANIA";11425;11.94;1
Zamora;"PARTIDO POPULAR";45068;41.35;4
Zamora;"PARTIDO SOCIALISTA OBRERO ESPAÑOL";27856;25.56;2
Zamora;PODEMOS;11979;10.99;1
Zaragoza;"PARTIDO POPULAR";132145;27.77;11
Zaragoza;"PARTIDO SOCIALISTA OBRERO ESPAÑOL";95748;20.12;8
Zaragoza;PODEMOS;103291;21.71;8
Zaragoza;"CIUDADANOS-PARTIDO DE LA CIUDADANIA";47602;10.00;3
Zaragoza;"CHUNTA ARAGONESISTA";24335;5.11;2
Zaragoza;"PARTIDO ARAGONES";24984;5.25;2
Zaragoza;"IZQUIERDA UNIDA";20879;4.39;1
